{
  "project_info": {
    "project_number": "1058165690835",
    "firebase_url": "https://by-the-wave-dev.firebaseio.com",
    "project_id": "by-the-wave-dev",
    "storage_bucket": "by-the-wave-dev.appspot.com"
  },
  "client": [
    {
      "client_info": {
        "mobilesdk_app_id": "1:1058165690835:android:5c3b491ea2301452",
        "android_client_info": {
          "package_name": "com.by_the_wave.by_the_wave_android"
        }
      },
      "oauth_client": [
        {
          "client_id": "1058165690835-evh6tg5e009nooe9bb8g5fk0vbjhjjnd.apps.googleusercontent.com",
          "client_type": 3
        }
      ],
      "api_key": [
        {
          "current_key": "AIzaSyBdJJCm-hDk85aLT9NAXnal1o913wcqKvs"
        }
      ],
      "services": {
        "analytics_service": {
          "status": 1
        },
        "appinvite_service": {
          "status": 1,
          "other_platform_oauth_client": []
        },
        "ads_service": {
          "status": 2
        }
      }
    }
  ],
  "configuration_version": "1"
}