{
  "cityName":"Anglet",
  "comment":"Wonderful session with best friends 😉",
  "countryName":"France",
  "deviceId":"DefaultSession",
  "duration":3078.0,
  "isFavorite":false,
  "isViewed":false,
  "position":{
    "latitude":43.495087,
    "longitude":-1.54303
  },
  "sport":"skate",
  "spotName":"Demo session",
  "startedAt": "Apr 25, 2017 10:30:14 AM",
  "toDelete":false,
  "userId":"",
  "waves":[
    {
      "direction":"RIGHT",
      "distance":146.0,
      "duration":30.0,
      "level":6,
      "moments":[
        {
          "altitude":0.0,
          "loggedAt":0,
          "position":{
            "latitude":43.49506,
            "longitude":-1.543115
          },
          "type":"Z"
        },
        {
          "altitude":0.0,
          "loggedAt":0,
          "position":{
            "latitude":43.495064,
            "longitude":-1.543164
          },
          "type":"Z"
        },
        {
          "altitude":0.0,
          "loggedAt":0,
          "position":{
            "latitude":43.495075,
            "longitude":-1.543236
          },
          "type":"L"
        },
        {
          "altitude":0.0,
          "loggedAt":0,
          "position":{
            "latitude":43.495045,
            "longitude":-1.543301
          },
          "type":"Z"
        },
        {
          "altitude":0.0,
          "loggedAt":0,
          "position":{
            "latitude":43.495041,
            "longitude":-1.543312
          },
          "type":"Z"
        },
        {
          "altitude":0.0,
          "loggedAt":0,
          "position":{
            "latitude":43.495029,
            "longitude":-1.543337
          },
          "type":"Z"
        },
        {
          "altitude":0.0,
          "loggedAt":0,
          "position":{
            "latitude":43.495022,
            "longitude":-1.543383
          },
          "type":"Z"
        },
        {
          "altitude":0.0,
          "loggedAt":0,
          "position":{
            "latitude":43.495003,
            "longitude":-1.543433
          },
          "type":"Z"
        },
        {
          "altitude":0.0,
          "loggedAt":0,
          "position":{
            "latitude":43.494984,
            "longitude":-1.543493
          },
          "type":"R"
        },
        {
          "altitude":0.0,
          "loggedAt":0,
          "position":{
            "latitude":43.494999,
            "longitude":-1.543557
          },
          "type":"Z"
        },
        {
          "altitude":0.0,
          "loggedAt":0,
          "position":{
            "latitude":43.495045,
            "longitude":-1.543587
          },
          "type":"R"
        },
        {
          "altitude":0.0,
          "loggedAt":0,
          "position":{
            "latitude":43.495174,
            "longitude":-1.543541
          },
          "type":"Z"
        },
        {
          "altitude":0.0,
          "loggedAt":0,
          "position":{
            "latitude":43.495239,
            "longitude":-1.54349
          },
          "type":"Z"
        },
        {
          "altitude":0.0,
          "loggedAt":0,
          "position":{
            "latitude":43.495316,
            "longitude":-1.543448
          },
          "type":"Z"
        },
        {
          "altitude":0.0,
          "loggedAt":0,
          "position":{
            "latitude":43.495396,
            "longitude":-1.543396
          },
          "type":"Z"
        },
        {
          "altitude":0.0,
          "loggedAt":0,
          "position":{
            "latitude":43.495537,
            "longitude":-1.543385
          },
          "type":"L"
        },
        {
          "altitude":0.0,
          "loggedAt":0,
          "position":{
            "latitude":43.495564,
            "longitude":-1.543454
          },
          "type":"Z"
        },
        {
          "altitude":0.0,
          "loggedAt":0,
          "position":{
            "latitude":43.495564,
            "longitude":-1.543505
          },
          "type":"L"
        },
        {
          "altitude":0.0,
          "loggedAt":0,
          "position":{
            "latitude":43.495541,
            "longitude":-1.543517
          },
          "type":"Z"
        },
        {
          "altitude":0.0,
          "loggedAt":0,
          "position":{
            "latitude":43.495514,
            "longitude":-1.543528
          },
          "type":"Z"
        },
        {
          "altitude":0.0,
          "loggedAt":0,
          "position":{
            "latitude":43.495483,
            "longitude":-1.543555
          },
          "type":"Z"
        },
        {
          "altitude":0.0,
          "loggedAt":0,
          "position":{
            "latitude":43.495445,
            "longitude":-1.543584
          },
          "type":"Z"
        },
        {
          "altitude":0.0,
          "loggedAt":0,
          "position":{
            "latitude":43.495403,
            "longitude":-1.543624
          },
          "type":"Z"
        },
        {
          "altitude":0.0,
          "loggedAt":0,
          "position":{
            "latitude":43.495365,
            "longitude":-1.543676
          },
          "type":"Z"
        },
        {
          "altitude":0.0,
          "loggedAt":0,
          "position":{
            "latitude":43.495327,
            "longitude":-1.543707
          },
          "type":"Z"
        },
        {
          "altitude":0.0,
          "loggedAt":0,
          "position":{
            "latitude":43.495308,
            "longitude":-1.543713
          },
          "type":"L"
        },
        {
          "altitude":0.0,
          "loggedAt":0,
          "position":{
            "latitude":43.495304,
            "longitude":-1.543707
          },
          "type":"Z"
        }
      ],
      "position":{
        "latitude":43.49506,
        "longitude":-1.543115
      },
      "speed":35.0,
      "startedAt":"Dec 11, 2018 9:08:24 AM",
      "toDelete":false
    },
    {
      "direction":"LEFT",
      "distance":201.0,
      "duration":30.0,
      "level":5,
      "moments":[
        {
          "altitude":0.0,
          "loggedAt":0,
          "position":{
            "latitude":43.495045,
            "longitude":-1.54307
          },
          "type":"Z"
        },
        {
          "altitude":0.0,
          "loggedAt":0,
          "position":{
            "latitude":43.495049,
            "longitude":-1.543111
          },
          "type":"Z"
        },
        {
          "altitude":0.0,
          "loggedAt":0,
          "position":{
            "latitude":43.495052,
            "longitude":-1.543165
          },
          "type":"Z"
        },
        {
          "altitude":0.0,
          "loggedAt":0,
          "position":{
            "latitude":43.495052,
            "longitude":-1.543235
          },
          "type":"Z"
        },
        {
          "altitude":0.0,
          "loggedAt":0,
          "position":{
            "latitude":43.495037,
            "longitude":-1.543311
          },
          "type":"Z"
        },
        {
          "altitude":0.0,
          "loggedAt":0,
          "position":{
            "latitude":43.495007,
            "longitude":-1.543394
          },
          "type":"Z"
        },
        {
          "altitude":0.0,
          "loggedAt":0,
          "position":{
            "latitude":43.494976,
            "longitude":-1.543487
          },
          "type":"Z"
        },
        {
          "altitude":0.0,
          "loggedAt":0,
          "position":{
            "latitude":43.494972,
            "longitude":-1.543564
          },
          "type":"R"
        },
        {
          "altitude":0.0,
          "loggedAt":0,
          "position":{
            "latitude":43.494999,
            "longitude":-1.543605
          },
          "type":"Z"
        },
        {
          "altitude":0.0,
          "loggedAt":0,
          "position":{
            "latitude":43.495045,
            "longitude":-1.543615
          },
          "type":"R"
        },
        {
          "altitude":0.0,
          "loggedAt":0,
          "position":{
            "latitude":43.495102,
            "longitude":-1.543597
          },
          "type":"Z"
        },
        {
          "altitude":0.0,
          "loggedAt":0,
          "position":{
            "latitude":43.495159,
            "longitude":-1.543557
          },
          "type":"Z"
        },
        {
          "altitude":0.0,
          "loggedAt":0,
          "position":{
            "latitude":43.495228,
            "longitude":-1.543522
          },
          "type":"Z"
        },
        {
          "altitude":0.0,
          "loggedAt":0,
          "position":{
            "latitude":43.495373,
            "longitude":-1.543428
          },
          "type":"Z"
        },
        {
          "altitude":0.0,
          "loggedAt":0,
          "position":{
            "latitude":43.495461,
            "longitude":-1.5434
          },
          "type":"L"
        },
        {
          "altitude":0.0,
          "loggedAt":0,
          "position":{
            "latitude":43.495529,
            "longitude":-1.543409
          },
          "type":"Z"
        },
        {
          "altitude":0.0,
          "loggedAt":0,
          "position":{
            "latitude":43.495548,
            "longitude":-1.543474
          },
          "type":"L"
        },
        {
          "altitude":0.0,
          "loggedAt":0,
          "position":{
            "latitude":43.495525,
            "longitude":-1.543536
          },
          "type":"Z"
        },
        {
          "altitude":0.0,
          "loggedAt":0,
          "position":{
            "latitude":43.495472,
            "longitude":-1.543578
          },
          "type":"Z"
        },
        {
          "altitude":0.0,
          "loggedAt":0,
          "position":{
            "latitude":43.495415,
            "longitude":-1.54363
          },
          "type":"Z"
        },
        {
          "altitude":0.0,
          "loggedAt":0,
          "position":{
            "latitude":43.49535,
            "longitude":-1.54368
          },
          "type":"Z"
        },
        {
          "altitude":0.0,
          "loggedAt":0,
          "position":{
            "latitude":43.495285,
            "longitude":-1.543735
          },
          "type":"Z"
        },
        {
          "altitude":0.0,
          "loggedAt":0,
          "position":{
            "latitude":43.49522,
            "longitude":-1.54379
          },
          "type":"Z"
        },
        {
          "altitude":0.0,
          "loggedAt":0,
          "position":{
            "latitude":43.495155,
            "longitude":-1.543859
          },
          "type":"Z"
        },
        {
          "altitude":0.0,
          "loggedAt":0,
          "position":{
            "latitude":43.495052,
            "longitude":-1.544033
          },
          "type":"Z"
        },
        {
          "altitude":0.0,
          "loggedAt":0,
          "position":{
            "latitude":43.494987,
            "longitude":-1.544099
          },
          "type":"Z"
        },
        {
          "altitude":0.0,
          "loggedAt":0,
          "position":{
            "latitude":43.494953,
            "longitude":-1.544147
          },
          "type":"Z"
        }
      ],
      "position":{
        "latitude":43.495045,
        "longitude":-1.54307
      },
      "speed":36.0,
      "startedAt":"Dec 11, 2018 9:14:50 AM",
      "toDelete":false
    },
    {
      "direction":"LEFT",
      "distance":6.0,
      "duration":4.0,
      "level":1,
      "moments":[
        {
          "altitude":0.0,
          "loggedAt":0,
          "position":{
            "latitude":43.495064,
            "longitude":-1.543034
          },
          "type":"Z"
        },
        {
          "altitude":0.0,
          "loggedAt":0,
          "position":{
            "latitude":43.495064,
            "longitude":-1.543072
          },
          "type":"Z"
        },
        {
          "altitude":0.0,
          "loggedAt":0,
          "position":{
            "latitude":43.49506,
            "longitude":-1.543101
          },
          "type":"Z"
        },
        {
          "altitude":0.0,
          "loggedAt":0,
          "position":{
            "latitude":43.495064,
            "longitude":-1.543119
          },
          "type":"Z"
        }
      ],
      "position":{
        "latitude":43.495064,
        "longitude":-1.543034
      },
      "speed":12.0,
      "startedAt":"Dec 11, 2018 9:18:43 AM",
      "toDelete":true
    },
    {
      "direction":"RIGHT",
      "distance":200.0,
      "duration":28.0,
      "level":5,
      "moments":[
        {
          "altitude":0.0,
          "loggedAt":0,
          "position":{
            "latitude":43.49506,
            "longitude":-1.543082
          },
          "type":"Z"
        },
        {
          "altitude":0.0,
          "loggedAt":0,
          "position":{
            "latitude":43.495056,
            "longitude":-1.543133
          },
          "type":"Z"
        },
        {
          "altitude":0.0,
          "loggedAt":0,
          "position":{
            "latitude":43.49506,
            "longitude":-1.543202
          },
          "type":"Z"
        },
        {
          "altitude":0.0,
          "loggedAt":0,
          "position":{
            "latitude":43.495045,
            "longitude":-1.54328
          },
          "type":"Z"
        },
        {
          "altitude":0.0,
          "loggedAt":0,
          "position":{
            "latitude":43.495026,
            "longitude":-1.543371
          },
          "type":"Z"
        },
        {
          "altitude":0.0,
          "loggedAt":0,
          "position":{
            "latitude":43.494987,
            "longitude":-1.543464
          },
          "type":"Z"
        },
        {
          "altitude":0.0,
          "loggedAt":0,
          "position":{
            "latitude":43.494984,
            "longitude":-1.543551
          },
          "type":"R"
        },
        {
          "altitude":0.0,
          "loggedAt":0,
          "position":{
            "latitude":43.495014,
            "longitude":-1.543596
          },
          "type":"Z"
        },
        {
          "altitude":0.0,
          "loggedAt":0,
          "position":{
            "latitude":43.495064,
            "longitude":-1.5436
          },
          "type":"R"
        },
        {
          "altitude":0.0,
          "loggedAt":0,
          "position":{
            "latitude":43.495255,
            "longitude":-1.543491
          },
          "type":"Z"
        },
        {
          "altitude":0.0,
          "loggedAt":0,
          "position":{
            "latitude":43.495327,
            "longitude":-1.543446
          },
          "type":"Z"
        },
        {
          "altitude":0.0,
          "loggedAt":0,
          "position":{
            "latitude":43.495407,
            "longitude":-1.543387
          },
          "type":"Z"
        },
        {
          "altitude":0.0,
          "loggedAt":0,
          "position":{
            "latitude":43.495472,
            "longitude":-1.543361
          },
          "type":"L"
        },
        {
          "altitude":0.0,
          "loggedAt":0,
          "position":{
            "latitude":43.495522,
            "longitude":-1.54338
          },
          "type":"Z"
        },
        {
          "altitude":0.0,
          "loggedAt":0,
          "position":{
            "latitude":43.495548,
            "longitude":-1.543447
          },
          "type":"L"
        },
        {
          "altitude":0.0,
          "loggedAt":0,
          "position":{
            "latitude":43.495522,
            "longitude":-1.543508
          },
          "type":"Z"
        },
        {
          "altitude":0.0,
          "loggedAt":0,
          "position":{
            "latitude":43.495472,
            "longitude":-1.543557
          },
          "type":"Z"
        },
        {
          "altitude":0.0,
          "loggedAt":0,
          "position":{
            "latitude":43.495415,
            "longitude":-1.543613
          },
          "type":"Z"
        },
        {
          "altitude":0.0,
          "loggedAt":0,
          "position":{
            "latitude":43.49535,
            "longitude":-1.543653
          },
          "type":"Z"
        },
        {
          "altitude":0.0,
          "loggedAt":0,
          "position":{
            "latitude":43.495285,
            "longitude":-1.543702
          },
          "type":"Z"
        },
        {
          "altitude":0.0,
          "loggedAt":0,
          "position":{
            "latitude":43.495155,
            "longitude":-1.543829
          },
          "type":"Z"
        },
        {
          "altitude":0.0,
          "loggedAt":0,
          "position":{
            "latitude":43.495098,
            "longitude":-1.543913
          },
          "type":"Z"
        },
        {
          "altitude":0.0,
          "loggedAt":0,
          "position":{
            "latitude":43.495049,
            "longitude":-1.544001
          },
          "type":"Z"
        },
        {
          "altitude":0.0,
          "loggedAt":0,
          "position":{
            "latitude":43.494984,
            "longitude":-1.544073
          },
          "type":"Z"
        },
        {
          "altitude":0.0,
          "loggedAt":0,
          "position":{
            "latitude":43.494946,
            "longitude":-1.544142
          },
          "type":"Z"
        }
      ],
      "position":{
        "latitude":43.49506,
        "longitude":-1.543082
      },
      "speed":37.0,
      "startedAt":"Dec 11, 2018 9:18:59 AM",
      "toDelete":false
    },
    {
      "direction":"RIGHT",
      "distance":43.0,
      "duration":8.0,
      "level":5,
      "moments":[
        {
          "altitude":0.0,
          "loggedAt":0,
          "position":{
            "latitude":43.49506,
            "longitude":-1.543061
          },
          "type":"Z"
        },
        {
          "altitude":0.0,
          "loggedAt":0,
          "position":{
            "latitude":43.495056,
            "longitude":-1.543107
          },
          "type":"Z"
        },
        {
          "altitude":0.0,
          "loggedAt":0,
          "position":{
            "latitude":43.495056,
            "longitude":-1.543168
          },
          "type":"Z"
        },
        {
          "altitude":0.0,
          "loggedAt":0,
          "position":{
            "latitude":43.495049,
            "longitude":-1.543244
          },
          "type":"Z"
        },
        {
          "altitude":0.0,
          "loggedAt":0,
          "position":{
            "latitude":43.494987,
            "longitude":-1.543519
          },
          "type":"R"
        },
        {
          "altitude":0.0,
          "loggedAt":0,
          "position":{
            "latitude":43.495007,
            "longitude":-1.543577
          },
          "type":"Z"
        }
      ],
      "position":{
        "latitude":43.49506,
        "longitude":-1.543061
      },
      "speed":30.0,
      "startedAt":"Dec 11, 2018 9:24:28 AM",
      "toDelete":false
    },
    {
      "direction":"RIGHT",
      "distance":75.0,
      "duration":13.0,
      "level":5,
      "moments":[
        {
          "altitude":0.0,
          "loggedAt":0,
          "position":{
            "latitude":43.495064,
            "longitude":-1.543041
          },
          "type":"Z"
        },
        {
          "altitude":0.0,
          "loggedAt":0,
          "position":{
            "latitude":43.495064,
            "longitude":-1.543078
          },
          "type":"Z"
        },
        {
          "altitude":0.0,
          "loggedAt":0,
          "position":{
            "latitude":43.495064,
            "longitude":-1.543133
          },
          "type":"Z"
        },
        {
          "altitude":0.0,
          "loggedAt":0,
          "position":{
            "latitude":43.495068,
            "longitude":-1.543205
          },
          "type":"Z"
        },
        {
          "altitude":0.0,
          "loggedAt":0,
          "position":{
            "latitude":43.49506,
            "longitude":-1.543289
          },
          "type":"Z"
        },
        {
          "altitude":0.0,
          "loggedAt":0,
          "position":{
            "latitude":43.495029,
            "longitude":-1.543376
          },
          "type":"Z"
        },
        {
          "altitude":0.0,
          "loggedAt":0,
          "position":{
            "latitude":43.495007,
            "longitude":-1.543479
          },
          "type":"Z"
        },
        {
          "altitude":0.0,
          "loggedAt":0,
          "position":{
            "latitude":43.49501,
            "longitude":-1.543556
          },
          "type":"R"
        },
        {
          "altitude":0.0,
          "loggedAt":0,
          "position":{
            "latitude":43.495049,
            "longitude":-1.543593
          },
          "type":"Z"
        },
        {
          "altitude":0.0,
          "loggedAt":0,
          "position":{
            "latitude":43.495106,
            "longitude":-1.543584
          },
          "type":"Z"
        },
        {
          "altitude":0.0,
          "loggedAt":0,
          "position":{
            "latitude":43.495167,
            "longitude":-1.543552
          },
          "type":"Z"
        },
        {
          "altitude":0.0,
          "loggedAt":0,
          "position":{
            "latitude":43.495228,
            "longitude":-1.5435
          },
          "type":"Z"
        },
        {
          "altitude":0.0,
          "loggedAt":0,
          "position":{
            "latitude":43.495281,
            "longitude":-1.543475
          },
          "type":"Z"
        }
      ],
      "position":{
        "latitude":43.495064,
        "longitude":-1.543041
      },
      "speed":32.0,
      "startedAt":"Dec 11, 2018 9:26:07 AM",
      "toDelete":false
    },
    {
      "direction":"RIGHT",
      "distance":15.0,
      "duration":10.0,
      "level":2,
      "moments":[
        {
          "altitude":0.0,
          "loggedAt":0,
          "position":{
            "latitude":43.495041,
            "longitude":-1.543219
          },
          "type":"Z"
        },
        {
          "altitude":0.0,
          "loggedAt":0,
          "position":{
            "latitude":43.495041,
            "longitude":-1.543176
          },
          "type":"Z"
        },
        {
          "altitude":0.0,
          "loggedAt":0,
          "position":{
            "latitude":43.495041,
            "longitude":-1.543155
          },
          "type":"Z"
        },
        {
          "altitude":0.0,
          "loggedAt":0,
          "position":{
            "latitude":43.495041,
            "longitude":-1.543135
          },
          "type":"Z"
        },
        {
          "altitude":0.0,
          "loggedAt":0,
          "position":{
            "latitude":43.495041,
            "longitude":-1.543093
          },
          "type":"Z"
        },
        {
          "altitude":0.0,
          "loggedAt":0,
          "position":{
            "latitude":43.495041,
            "longitude":-1.543071
          },
          "type":"Z"
        },
        {
          "altitude":0.0,
          "loggedAt":0,
          "position":{
            "latitude":43.495041,
            "longitude":-1.543048
          },
          "type":"L"
        },
        {
          "altitude":0.0,
          "loggedAt":0,
          "position":{
            "latitude":43.495052,
            "longitude":-1.543029
          },
          "type":"Z"
        }
      ],
      "position":{
        "latitude":43.495041,
        "longitude":-1.543219
      },
      "speed":7.0,
      "startedAt":"Dec 11, 2018 9:27:14 AM",
      "toDelete":false
    },
    {
      "direction":"RIGHT",
      "distance":42.0,
      "duration":8.0,
      "level":5,
      "moments":[
        {
          "altitude":0.0,
          "loggedAt":0,
          "position":{
            "latitude":43.495052,
            "longitude":-1.543126
          },
          "type":"Z"
        },
        {
          "altitude":0.0,
          "loggedAt":0,
          "position":{
            "latitude":43.495052,
            "longitude":-1.543189
          },
          "type":"Z"
        },
        {
          "altitude":0.0,
          "loggedAt":0,
          "position":{
            "latitude":43.495052,
            "longitude":-1.543266
          },
          "type":"Z"
        },
        {
          "altitude":0.0,
          "loggedAt":0,
          "position":{
            "latitude":43.495033,
            "longitude":-1.543352
          },
          "type":"Z"
        },
        {
          "altitude":0.0,
          "loggedAt":0,
          "position":{
            "latitude":43.494999,
            "longitude":-1.543442
          },
          "type":"Z"
        },
        {
          "altitude":0.0,
          "loggedAt":0,
          "position":{
            "latitude":43.494991,
            "longitude":-1.543542
          },
          "type":"R"
        },
        {
          "altitude":0.0,
          "loggedAt":0,
          "position":{
            "latitude":43.49501,
            "longitude":-1.543609
          },
          "type":"Z"
        },
        {
          "altitude":0.0,
          "loggedAt":0,
          "position":{
            "latitude":43.495026,
            "longitude":-1.543625
          },
          "type":"Z"
        }
      ],
      "position":{
        "latitude":43.495052,
        "longitude":-1.543126
      },
      "speed":30.0,
      "startedAt":"Dec 11, 2018 9:27:45 AM",
      "toDelete":true
    },
    {
      "direction":"LEFT",
      "distance":49.0,
      "duration":28.0,
      "level":4,
      "moments":[
        {
          "altitude":0.0,
          "loggedAt":0,
          "position":{
            "latitude":43.495022,
            "longitude":-1.543607
          },
          "type":"Z"
        },
        {
          "altitude":0.0,
          "loggedAt":0,
          "position":{
            "latitude":43.495007,
            "longitude":-1.543591
          },
          "type":"Z"
        },
        {
          "altitude":0.0,
          "loggedAt":0,
          "position":{
            "latitude":43.494984,
            "longitude":-1.543548
          },
          "type":"Z"
        },
        {
          "altitude":0.0,
          "loggedAt":0,
          "position":{
            "latitude":43.49498,
            "longitude":-1.54352
          },
          "type":"Z"
        },
        {
          "altitude":0.0,
          "loggedAt":0,
          "position":{
            "latitude":43.494984,
            "longitude":-1.543493
          },
          "type":"Z"
        },
        {
          "altitude":0.0,
          "loggedAt":0,
          "position":{
            "latitude":43.494995,
            "longitude":-1.543468
          },
          "type":"Z"
        },
        {
          "altitude":0.0,
          "loggedAt":0,
          "position":{
            "latitude":43.495007,
            "longitude":-1.543445
          },
          "type":"Z"
        },
        {
          "altitude":0.0,
          "loggedAt":0,
          "position":{
            "latitude":43.495014,
            "longitude":-1.543417
          },
          "type":"Z"
        },
        {
          "altitude":0.0,
          "loggedAt":0,
          "position":{
            "latitude":43.495022,
            "longitude":-1.543389
          },
          "type":"Z"
        },
        {
          "altitude":0.0,
          "loggedAt":0,
          "position":{
            "latitude":43.495026,
            "longitude":-1.543362
          },
          "type":"Z"
        },
        {
          "altitude":0.0,
          "loggedAt":0,
          "position":{
            "latitude":43.495033,
            "longitude":-1.543333
          },
          "type":"Z"
        },
        {
          "altitude":0.0,
          "loggedAt":0,
          "position":{
            "latitude":43.495045,
            "longitude":-1.54329
          },
          "type":"Z"
        },
        {
          "altitude":0.0,
          "loggedAt":0,
          "position":{
            "latitude":43.495052,
            "longitude":-1.543272
          },
          "type":"Z"
        },
        {
          "altitude":0.0,
          "loggedAt":0,
          "position":{
            "latitude":43.495056,
            "longitude":-1.543233
          },
          "type":"Z"
        },
        {
          "altitude":0.0,
          "loggedAt":0,
          "position":{
            "latitude":43.495056,
            "longitude":-1.543216
          },
          "type":"Z"
        },
        {
          "altitude":0.0,
          "loggedAt":0,
          "position":{
            "latitude":43.495052,
            "longitude":-1.543198
          },
          "type":"Z"
        },
        {
          "altitude":0.0,
          "loggedAt":0,
          "position":{
            "latitude":43.495052,
            "longitude":-1.54318
          },
          "type":"Z"
        },
        {
          "altitude":0.0,
          "loggedAt":0,
          "position":{
            "latitude":43.495049,
            "longitude":-1.543162
          },
          "type":"Z"
        },
        {
          "altitude":0.0,
          "loggedAt":0,
          "position":{
            "latitude":43.495049,
            "longitude":-1.543144
          },
          "type":"Z"
        },
        {
          "altitude":0.0,
          "loggedAt":0,
          "position":{
            "latitude":43.495049,
            "longitude":-1.543126
          },
          "type":"Z"
        },
        {
          "altitude":0.0,
          "loggedAt":0,
          "position":{
            "latitude":43.495049,
            "longitude":-1.543108
          },
          "type":"Z"
        },
        {
          "altitude":0.0,
          "loggedAt":0,
          "position":{
            "latitude":43.495049,
            "longitude":-1.54309
          },
          "type":"Z"
        },
        {
          "altitude":0.0,
          "loggedAt":0,
          "position":{
            "latitude":43.495049,
            "longitude":-1.543054
          },
          "type":"L"
        },
        {
          "altitude":0.0,
          "loggedAt":0,
          "position":{
            "latitude":43.495056,
            "longitude":-1.543041
          },
          "type":"Z"
        }
      ],
      "position":{
        "latitude":43.495022,
        "longitude":-1.543607
      },
      "speed":9.0,
      "startedAt":"Dec 11, 2018 9:27:54 AM",
      "toDelete":true
    },
    {
      "direction":"RIGHT",
      "distance":81.0,
      "duration":14.0,
      "level":5,
      "moments":[
        {
          "altitude":0.0,
          "loggedAt":0,
          "position":{
            "latitude":43.495064,
            "longitude":-1.54305
          },
          "type":"Z"
        },
        {
          "altitude":0.0,
          "loggedAt":0,
          "position":{
            "latitude":43.495064,
            "longitude":-1.543091
          },
          "type":"Z"
        },
        {
          "altitude":0.0,
          "loggedAt":0,
          "position":{
            "latitude":43.495068,
            "longitude":-1.543147
          },
          "type":"Z"
        },
        {
          "altitude":0.0,
          "loggedAt":0,
          "position":{
            "latitude":43.495064,
            "longitude":-1.543215
          },
          "type":"Z"
        },
        {
          "altitude":0.0,
          "loggedAt":0,
          "position":{
            "latitude":43.495052,
            "longitude":-1.543294
          },
          "type":"Z"
        },
        {
          "altitude":0.0,
          "loggedAt":0,
          "position":{
            "latitude":43.495018,
            "longitude":-1.543378
          },
          "type":"Z"
        },
        {
          "altitude":0.0,
          "loggedAt":0,
          "position":{
            "latitude":43.494995,
            "longitude":-1.543477
          },
          "type":"Z"
        },
        {
          "altitude":0.0,
          "loggedAt":0,
          "position":{
            "latitude":43.494995,
            "longitude":-1.543558
          },
          "type":"R"
        },
        {
          "altitude":0.0,
          "loggedAt":0,
          "position":{
            "latitude":43.495033,
            "longitude":-1.543603
          },
          "type":"Z"
        },
        {
          "altitude":0.0,
          "loggedAt":0,
          "position":{
            "latitude":43.49509,
            "longitude":-1.5436
          },
          "type":"Z"
        },
        {
          "altitude":0.0,
          "loggedAt":0,
          "position":{
            "latitude":43.495159,
            "longitude":-1.543573
          },
          "type":"Z"
        },
        {
          "altitude":0.0,
          "loggedAt":0,
          "position":{
            "latitude":43.495224,
            "longitude":-1.543522
          },
          "type":"Z"
        },
        {
          "altitude":0.0,
          "loggedAt":0,
          "position":{
            "latitude":43.495289,
            "longitude":-1.543483
          },
          "type":"Z"
        },
        {
          "altitude":0.0,
          "loggedAt":0,
          "position":{
            "latitude":43.495312,
            "longitude":-1.543463
          },
          "type":"Z"
        }
      ],
      "position":{
        "latitude":43.495064,
        "longitude":-1.54305
      },
      "speed":31.0,
      "startedAt":"Dec 11, 2018 9:28:55 AM",
      "toDelete":false
    },
    {
      "direction":"RIGHT",
      "distance":71.0,
      "duration":12.0,
      "level":5,
      "moments":[
        {
          "altitude":0.0,
          "loggedAt":0,
          "position":{
            "latitude":43.495056,
            "longitude":-1.543083
          },
          "type":"Z"
        },
        {
          "altitude":0.0,
          "loggedAt":0,
          "position":{
            "latitude":43.495052,
            "longitude":-1.543139
          },
          "type":"Z"
        },
        {
          "altitude":0.0,
          "loggedAt":0,
          "position":{
            "latitude":43.495049,
            "longitude":-1.543213
          },
          "type":"Z"
        },
        {
          "altitude":0.0,
          "loggedAt":0,
          "position":{
            "latitude":43.495037,
            "longitude":-1.543296
          },
          "type":"Z"
        },
        {
          "altitude":0.0,
          "loggedAt":0,
          "position":{
            "latitude":43.49501,
            "longitude":-1.543387
          },
          "type":"Z"
        },
        {
          "altitude":0.0,
          "loggedAt":0,
          "position":{
            "latitude":43.49498,
            "longitude":-1.543489
          },
          "type":"Z"
        },
        {
          "altitude":0.0,
          "loggedAt":0,
          "position":{
            "latitude":43.49498,
            "longitude":-1.543573
          },
          "type":"R"
        },
        {
          "altitude":0.0,
          "loggedAt":0,
          "position":{
            "latitude":43.495014,
            "longitude":-1.543603
          },
          "type":"Z"
        },
        {
          "altitude":0.0,
          "loggedAt":0,
          "position":{
            "latitude":43.495064,
            "longitude":-1.543602
          },
          "type":"Z"
        },
        {
          "altitude":0.0,
          "loggedAt":0,
          "position":{
            "latitude":43.495121,
            "longitude":-1.543573
          },
          "type":"Z"
        },
        {
          "altitude":0.0,
          "loggedAt":0,
          "position":{
            "latitude":43.495232,
            "longitude":-1.543508
          },
          "type":"Z"
        }
      ],
      "position":{
        "latitude":43.495056,
        "longitude":-1.543083
      },
      "speed":33.0,
      "startedAt":"Dec 11, 2018 9:31:57 AM",
      "toDelete":false
    },
    {
      "direction":"RIGHT",
      "distance":95.0,
      "duration":15.0,
      "level":5,
      "moments":[
        {
          "altitude":0.0,
          "loggedAt":0,
          "position":{
            "latitude":43.495041,
            "longitude":-1.543611
          },
          "type":"Z"
        },
        {
          "altitude":0.0,
          "loggedAt":0,
          "position":{
            "latitude":43.495079,
            "longitude":-1.543602
          },
          "type":"Z"
        },
        {
          "altitude":0.0,
          "loggedAt":0,
          "position":{
            "latitude":43.495129,
            "longitude":-1.543584
          },
          "type":"Z"
        },
        {
          "altitude":0.0,
          "loggedAt":0,
          "position":{
            "latitude":43.495182,
            "longitude":-1.543551
          },
          "type":"Z"
        },
        {
          "altitude":0.0,
          "loggedAt":0,
          "position":{
            "latitude":43.495239,
            "longitude":-1.543507
          },
          "type":"Z"
        },
        {
          "altitude":0.0,
          "loggedAt":0,
          "position":{
            "latitude":43.495304,
            "longitude":-1.543475
          },
          "type":"Z"
        },
        {
          "altitude":0.0,
          "loggedAt":0,
          "position":{
            "latitude":43.495365,
            "longitude":-1.543414
          },
          "type":"Z"
        },
        {
          "altitude":0.0,
          "loggedAt":0,
          "position":{
            "latitude":43.495445,
            "longitude":-1.543368
          },
          "type":"Z"
        },
        {
          "altitude":0.0,
          "loggedAt":0,
          "position":{
            "latitude":43.495506,
            "longitude":-1.543363
          },
          "type":"L"
        },
        {
          "altitude":0.0,
          "loggedAt":0,
          "position":{
            "latitude":43.495544,
            "longitude":-1.543488
          },
          "type":"Z"
        },
        {
          "altitude":0.0,
          "loggedAt":0,
          "position":{
            "latitude":43.495491,
            "longitude":-1.543535
          },
          "type":"Z"
        },
        {
          "altitude":0.0,
          "loggedAt":0,
          "position":{
            "latitude":43.495438,
            "longitude":-1.543589
          },
          "type":"Z"
        },
        {
          "altitude":0.0,
          "loggedAt":0,
          "position":{
            "latitude":43.495369,
            "longitude":-1.543636
          },
          "type":"Z"
        },
        {
          "altitude":0.0,
          "loggedAt":0,
          "position":{
            "latitude":43.495327,
            "longitude":-1.543664
          },
          "type":"Z"
        }
      ],
      "position":{
        "latitude":43.495041,
        "longitude":-1.543611
      },
      "speed":34.0,
      "startedAt":"Dec 11, 2018 9:34:09 AM",
      "toDelete":false
    },
    {
      "direction":"LEFT",
      "distance":24.0,
      "duration":7.0,
      "level":2,
      "moments":[
        {
          "altitude":0.0,
          "loggedAt":0,
          "position":{
            "latitude":43.495419,
            "longitude":-1.54337
          },
          "type":"Z"
        },
        {
          "altitude":0.0,
          "loggedAt":0,
          "position":{
            "latitude":43.495438,
            "longitude":-1.543354
          },
          "type":"Z"
        },
        {
          "altitude":0.0,
          "loggedAt":0,
          "position":{
            "latitude":43.495476,
            "longitude":-1.543348
          },
          "type":"L"
        },
        {
          "altitude":0.0,
          "loggedAt":0,
          "position":{
            "latitude":43.495518,
            "longitude":-1.543377
          },
          "type":"Z"
        },
        {
          "altitude":0.0,
          "loggedAt":0,
          "position":{
            "latitude":43.495533,
            "longitude":-1.543456
          },
          "type":"L"
        },
        {
          "altitude":0.0,
          "loggedAt":0,
          "position":{
            "latitude":43.495506,
            "longitude":-1.543525
          },
          "type":"Z"
        }
      ],
      "position":{
        "latitude":43.495419,
        "longitude":-1.54337
      },
      "speed":27.0,
      "startedAt":"Dec 11, 2018 9:35:37 AM",
      "toDelete":true
    },
    {
      "direction":"LEFT",
      "distance":18.0,
      "duration":5.0,
      "level":2,
      "moments":[
        {
          "altitude":0.0,
          "loggedAt":0,
          "position":{
            "latitude":43.495472,
            "longitude":-1.543374
          },
          "type":"Z"
        },
        {
          "altitude":0.0,
          "loggedAt":0,
          "position":{
            "latitude":43.495514,
            "longitude":-1.543387
          },
          "type":"L"
        },
        {
          "altitude":0.0,
          "loggedAt":0,
          "position":{
            "latitude":43.495552,
            "longitude":-1.543444
          },
          "type":"Z"
        },
        {
          "altitude":0.0,
          "loggedAt":0,
          "position":{
            "latitude":43.495541,
            "longitude":-1.54351
          },
          "type":"Z"
        },
        {
          "altitude":0.0,
          "loggedAt":0,
          "position":{
            "latitude":43.495529,
            "longitude":-1.543529
          },
          "type":"Z"
        }
      ],
      "position":{
        "latitude":43.495472,
        "longitude":-1.543374
      },
      "speed":24.0,
      "startedAt":"Dec 11, 2018 9:36:56 AM",
      "toDelete":true
    },
    {
      "direction":"LEFT",
      "distance":56.0,
      "duration":23.0,
      "level":5,
      "moments":[
        {
          "altitude":0.0,
          "loggedAt":0,
          "position":{
            "latitude":43.495514,
            "longitude":-1.543389
          },
          "type":"Z"
        },
        {
          "altitude":0.0,
          "loggedAt":0,
          "position":{
            "latitude":43.495533,
            "longitude":-1.543446
          },
          "type":"L"
        },
        {
          "altitude":0.0,
          "loggedAt":0,
          "position":{
            "latitude":43.495514,
            "longitude":-1.543515
          },
          "type":"Z"
        },
        {
          "altitude":0.0,
          "loggedAt":0,
          "position":{
            "latitude":43.495468,
            "longitude":-1.543572
          },
          "type":"Z"
        },
        {
          "altitude":0.0,
          "loggedAt":0,
          "position":{
            "latitude":43.495411,
            "longitude":-1.543636
          },
          "type":"Z"
        },
        {
          "altitude":0.0,
          "loggedAt":0,
          "position":{
            "latitude":43.495316,
            "longitude":-1.543696
          },
          "type":"Z"
        },
        {
          "altitude":0.0,
          "loggedAt":0,
          "position":{
            "latitude":43.495308,
            "longitude":-1.543697
          },
          "type":"L"
        },
        {
          "altitude":0.0,
          "loggedAt":0,
          "position":{
            "latitude":43.495319,
            "longitude":-1.543684
          },
          "type":"Z"
        },
        {
          "altitude":0.0,
          "loggedAt":0,
          "position":{
            "latitude":43.495338,
            "longitude":-1.543666
          },
          "type":"Z"
        },
        {
          "altitude":0.0,
          "loggedAt":0,
          "position":{
            "latitude":43.49535,
            "longitude":-1.543656
          },
          "type":"Z"
        },
        {
          "altitude":0.0,
          "loggedAt":0,
          "position":{
            "latitude":43.495361,
            "longitude":-1.543643
          },
          "type":"Z"
        },
        {
          "altitude":0.0,
          "loggedAt":0,
          "position":{
            "latitude":43.495377,
            "longitude":-1.543634
          },
          "type":"Z"
        },
        {
          "altitude":0.0,
          "loggedAt":0,
          "position":{
            "latitude":43.495388,
            "longitude":-1.543626
          },
          "type":"Z"
        },
        {
          "altitude":0.0,
          "loggedAt":0,
          "position":{
            "latitude":43.495399,
            "longitude":-1.54362
          },
          "type":"Z"
        },
        {
          "altitude":0.0,
          "loggedAt":0,
          "position":{
            "latitude":43.495415,
            "longitude":-1.543614
          },
          "type":"Z"
        },
        {
          "altitude":0.0,
          "loggedAt":0,
          "position":{
            "latitude":43.49543,
            "longitude":-1.543608
          },
          "type":"Z"
        },
        {
          "altitude":0.0,
          "loggedAt":0,
          "position":{
            "latitude":43.495441,
            "longitude":-1.543601
          },
          "type":"Z"
        },
        {
          "altitude":0.0,
          "loggedAt":0,
          "position":{
            "latitude":43.495453,
            "longitude":-1.543593
          },
          "type":"Z"
        }
      ],
      "position":{
        "latitude":43.495514,
        "longitude":-1.543389
      },
      "speed":29.0,
      "startedAt":"Dec 11, 2018 9:38:13 AM",
      "toDelete":false
    },
    {
      "direction":"RIGHT",
      "distance":28.0,
      "duration":6.0,
      "level":3,
      "moments":[
        {
          "altitude":0.0,
          "loggedAt":0,
          "position":{
            "latitude":43.495533,
            "longitude":-1.543495
          },
          "type":"Z"
        },
        {
          "altitude":0.0,
          "loggedAt":0,
          "position":{
            "latitude":43.495491,
            "longitude":-1.543526
          },
          "type":"Z"
        },
        {
          "altitude":0.0,
          "loggedAt":0,
          "position":{
            "latitude":43.495445,
            "longitude":-1.543565
          },
          "type":"Z"
        },
        {
          "altitude":0.0,
          "loggedAt":0,
          "position":{
            "latitude":43.495338,
            "longitude":-1.543664
          },
          "type":"Z"
        },
        {
          "altitude":0.0,
          "loggedAt":0,
          "position":{
            "latitude":43.495316,
            "longitude":-1.543678
          },
          "type":"Z"
        }
      ],
      "position":{
        "latitude":43.495533,
        "longitude":-1.543495
      },
      "speed":26.0,
      "startedAt":"Dec 11, 2018 9:39:36 AM",
      "toDelete":false
    },
    {
      "direction":"LEFT",
      "distance":27.0,
      "duration":6.0,
      "level":4,
      "moments":[
        {
          "altitude":0.0,
          "loggedAt":0,
          "position":{
            "latitude":43.495544,
            "longitude":-1.543493
          },
          "type":"Z"
        },
        {
          "altitude":0.0,
          "loggedAt":0,
          "position":{
            "latitude":43.49551,
            "longitude":-1.543525
          },
          "type":"Z"
        },
        {
          "altitude":0.0,
          "loggedAt":0,
          "position":{
            "latitude":43.495464,
            "longitude":-1.543558
          },
          "type":"Z"
        },
        {
          "altitude":0.0,
          "loggedAt":0,
          "position":{
            "latitude":43.495419,
            "longitude":-1.543602
          },
          "type":"Z"
        },
        {
          "altitude":0.0,
          "loggedAt":0,
          "position":{
            "latitude":43.495369,
            "longitude":-1.543659
          },
          "type":"Z"
        },
        {
          "altitude":0.0,
          "loggedAt":0,
          "position":{
            "latitude":43.495342,
            "longitude":-1.543675
          },
          "type":"Z"
        }
      ],
      "position":{
        "latitude":43.495544,
        "longitude":-1.543493
      },
      "speed":26.0,
      "startedAt":"Dec 11, 2018 9:40:09 AM",
      "toDelete":false
    }
  ]
}